…
```r
#sort by OCCUR_DATETIME
df <- df[order(df$OCCUR_DATETIME, decreasing = FALSE),]
```


```r
print(df)
```

```
## # A tibble: 25,482 × 12
##    OCCUR_DATE OCCUR_TIME OCCUR_DATETIME      BORO      PRECINCT JURISD…¹ STATI…²
##    <date>     <Period>   <dttm>              <fct>        <int>    <dbl>   <int>
##  1 2006-01-01 2H 0M 0S   2006-01-01 02:00:00 BRONX           48        0       0
##  2 2006-01-01 2H 22M 0S  2006-01-01 02:22:00 MANHATTAN       28        0       1
##  3 2006-01-01 2H 34M 0S  2006-01-01 02:34:00 QUEENS         114        0       1
##  4 2006-01-01 2H 34M 0S  2006-01-01 02:34:00 QUEENS         114        0       1
##  5 2006-01-01 3H 30M 0S  2006-01-01 03:30:00 BROOKLYN        67        0       0
##  6 2006-01-01 5H 51M 0S  2006-01-01 05:51:00 BRONX           44        0       0
##  7 2006-01-01 12H 30M 0S 2006-01-01 12:30:00 BROOKLYN        77        0       1
##  8 2006-01-01 19H 0M 0S  2006-01-01 19:00:00 QUEENS         106        0       0
##  9 2006-01-02 49M 0S     2006-01-02 00:49:00 BROOKLYN        90        2       1
## 10 2006-01-02 3H 59M 0S  2006-01-02 03:59:00 BROOKLYN        70        0       0
## # … with 25,472 more rows, 5 more variables: VIC_AGE_GROUP <chr>,
## #   VIC_SEX <chr>, VIC_RACE <chr>, Latitude <dbl>, Longitude <dbl>, and
## #   abbreviated variable names ¹​JURISDICTION_CODE, ²​STATISTICAL_MURDER_FLAG
## # ℹ Use `print(n = ...)` to see more rows, and `colnames()` to see all variable names
```
…
